Model selection results for subset: 6c86ad5f1e5c39fed766d3f586f6f19e
Subset alignment stored here: ./analysis/phylofiles/6c86ad5f1e5c39fed766d3f586f6f19e.phy
This subset contains the following data_blocks: C_pos3
Number of columns in subset: 433
Models are organised according to their AICc scores

Model           | Parameters      | lnL             | AICc             | AIC             | BIC            
TRN+I           | 6               | -1079.6         | 2171.41          | 2171.21         | 2195.63        
TRN+G           | 6               | -1079.74        | 2171.67          | 2171.47         | 2195.9         
GTR+G           | 9               | -1077.16        | 2172.74          | 2172.31         | 2208.95        
TIM+I           | 7               | -1079.3         | 2172.87          | 2172.61         | 2201.1         
TIM+G           | 7               | -1079.39        | 2173.05          | 2172.79         | 2201.28        
GTR+I           | 9               | -1077.36        | 2173.14          | 2172.72         | 2209.35        
TRN+I+G         | 7               | -1079.74        | 2173.74          | 2173.47         | 2201.97        
GTR+I+G         | 10              | -1077.15        | 2174.81          | 2174.29         | 2215.0         
TIM+I+G         | 8               | -1079.38        | 2175.11          | 2174.77         | 2207.34        
TRN             | 5               | -1105.64        | 2221.42          | 2221.28         | 2241.63        
GTR             | 8               | -1102.7         | 2221.74          | 2221.4          | 2253.97        
TIM             | 6               | -1104.93        | 2222.06          | 2221.87         | 2246.29        
HKY+I+G         | 6               | -1115.34        | 2242.87          | 2242.67         | 2267.1         
HKY+I           | 5               | -1116.84        | 2243.82          | 2243.68         | 2264.03        
K81UF+I+G       | 7               | -1114.82        | 2243.9           | 2243.64         | 2272.13        
HKY+G           | 5               | -1116.91        | 2243.96          | 2243.82         | 2264.18        
TVM+I+G         | 9               | -1113.26        | 2244.95          | 2244.53         | 2281.16        
K81UF+I         | 6               | -1116.4         | 2244.99          | 2244.79         | 2269.22        
K81UF+G         | 6               | -1116.44        | 2245.08          | 2244.88         | 2269.3         
TVM+G           | 8               | -1114.96        | 2246.26          | 2245.92         | 2278.48        
TVM+I           | 8               | -1115.01        | 2246.36          | 2246.02         | 2278.58        
TRNEF+I         | 3               | -1123.94        | 2253.94          | 2253.88         | 2266.1         
TRNEF+G         | 3               | -1124.23        | 2254.52          | 2254.46         | 2266.67        
TIMEF+I         | 4               | -1123.46        | 2255.01          | 2254.92         | 2271.2         
TIMEF+G         | 4               | -1123.71        | 2255.51          | 2255.42         | 2271.7         
SYM+I           | 6               | -1122.09        | 2256.38          | 2256.19         | 2280.61        
TRNEF+I+G       | 4               | -1124.24        | 2256.57          | 2256.48         | 2272.76        
SYM+G           | 6               | -1122.34        | 2256.88          | 2256.69         | 2281.11        
TIMEF+I+G       | 5               | -1123.72        | 2257.58          | 2257.44         | 2277.79        
SYM+I+G         | 7               | -1122.41        | 2259.09          | 2258.83         | 2287.32        
K80+G           | 2               | -1137.63        | 2279.28          | 2279.26         | 2287.4         
K80+I           | 2               | -1137.72        | 2279.48          | 2279.45         | 2287.59        
K81+G           | 3               | -1137.06        | 2280.18          | 2280.13         | 2292.34        
K81+I           | 3               | -1137.18        | 2280.42          | 2280.36         | 2292.57        
K80+I+G         | 3               | -1137.21        | 2280.48          | 2280.42         | 2292.63        
K81+I+G         | 4               | -1136.56        | 2281.22          | 2281.13         | 2297.41        
TVMEF+G         | 5               | -1135.94        | 2282.02          | 2281.88         | 2302.24        
TVMEF+I         | 5               | -1136.1         | 2282.34          | 2282.2          | 2302.55        
TVMEF+I+G       | 6               | -1135.41        | 2283.02          | 2282.82         | 2307.25        
TRNEF           | 2               | -1150.37        | 2304.76          | 2304.73         | 2312.87        
TIMEF           | 3               | -1149.63        | 2305.32          | 2305.27         | 2317.48        
SYM             | 5               | -1148.05        | 2306.25          | 2306.11         | 2326.46        
HKY             | 4               | -1153.11        | 2314.32          | 2314.23         | 2330.51        
TVM             | 7               | -1150.12        | 2314.5           | 2314.23         | 2342.73        
K81UF           | 5               | -1152.36        | 2314.86          | 2314.72         | 2335.07        
F81+G           | 4               | -1156.38        | 2320.85          | 2320.76         | 2337.04        
F81+I           | 4               | -1156.5         | 2321.1           | 2321.01         | 2337.29        
F81+I+G         | 5               | -1156.35        | 2322.85          | 2322.71         | 2343.06        
K80             | 1               | -1167.85        | 2337.7           | 2337.69         | 2341.76        
K81             | 2               | -1167.1         | 2338.23          | 2338.2          | 2346.34        
TVMEF           | 4               | -1165.52        | 2339.13          | 2339.03         | 2355.32        
F81             | 3               | -1179.34        | 2364.73          | 2364.68         | 2376.89        
JC+G            | 1               | -1184.55        | 2371.11          | 2371.1          | 2375.17        
JC+I            | 1               | -1184.8         | 2371.61          | 2371.6          | 2375.68        
JC+I+G          | 2               | -1184.11        | 2372.25          | 2372.22         | 2380.36        
JC              | 0               | -1210.25        | 2420.5           | 2420.5          | 2420.5         
