Model selection results for subset: cfff352263bab294968aab40f518285a
Subset alignment stored here: ./analysis/phylofiles/cfff352263bab294968aab40f518285a.phy
This subset contains the following data_blocks: C_pos1
Number of columns in subset: 434
Models are organised according to their AICc scores

Model           | Parameters      | lnL             | AICc             | AIC             | BIC            
GTR+G           | 9               | -844.558        | 1707.54          | 1707.12         | 1743.77        
GTR+I           | 9               | -844.564        | 1707.55          | 1707.13         | 1743.79        
GTR+I+G         | 10              | -844.566        | 1709.65          | 1709.13         | 1749.86        
GTR             | 8               | -847.379        | 1711.1           | 1710.76         | 1743.34        
TVM+G           | 8               | -848.308        | 1712.95          | 1712.62         | 1745.2         
TVM+I           | 8               | -848.36         | 1713.06          | 1712.72         | 1745.3         
TVM+I+G         | 9               | -848.293        | 1715.01          | 1714.59         | 1751.24        
TVM             | 7               | -851.088        | 1716.44          | 1716.18         | 1744.69        
TIM+I           | 7               | -852.112        | 1718.49          | 1718.22         | 1746.73        
TIM+G           | 7               | -852.123        | 1718.51          | 1718.25         | 1746.76        
TRN+I           | 6               | -853.588        | 1719.37          | 1719.18         | 1743.61        
TRN+G           | 6               | -853.589        | 1719.38          | 1719.18         | 1743.62        
TIM+I+G         | 8               | -852.15         | 1720.64          | 1720.3          | 1752.88        
TRN+I+G         | 7               | -853.615        | 1721.49          | 1721.23         | 1749.74        
TIM             | 6               | -855.538        | 1723.27          | 1723.08         | 1747.51        
TRN             | 5               | -856.915        | 1723.97          | 1723.83         | 1744.19        
K81UF+G         | 6               | -856.201        | 1724.6           | 1724.4          | 1748.84        
K81UF+I         | 6               | -856.214        | 1724.62          | 1724.43         | 1748.87        
HKY+G           | 5               | -857.592        | 1725.32          | 1725.18         | 1745.55        
HKY+I           | 5               | -857.602        | 1725.34          | 1725.2          | 1745.57        
K81UF+I+G       | 7               | -856.2          | 1726.66          | 1726.4          | 1754.91        
HKY+I+G         | 6               | -857.589        | 1727.37          | 1727.18         | 1751.62        
K81UF           | 5               | -859.277        | 1728.69          | 1728.55         | 1748.92        
HKY             | 4               | -860.638        | 1729.37          | 1729.28         | 1745.57        
F81+G           | 4               | -862.328        | 1732.75          | 1732.66         | 1748.95        
F81+I           | 4               | -862.337        | 1732.77          | 1732.67         | 1748.97        
F81+I+G         | 5               | -862.337        | 1734.81          | 1734.67         | 1755.04        
F81             | 3               | -865.118        | 1736.29          | 1736.24         | 1748.45        
SYM+G           | 6               | -867.068        | 1746.33          | 1746.14         | 1770.57        
SYM+I           | 6               | -867.068        | 1746.33          | 1746.14         | 1770.57        
SYM+I+G         | 7               | -867.084        | 1748.43          | 1748.17         | 1776.68        
SYM             | 5               | -869.906        | 1749.95          | 1749.81         | 1770.18        
TVMEF+G         | 5               | -870.297        | 1750.73          | 1750.59         | 1770.96        
TVMEF+I         | 5               | -870.326        | 1750.79          | 1750.65         | 1771.02        
TVMEF+I+G       | 6               | -870.287        | 1752.77          | 1752.57         | 1777.01        
TVMEF           | 4               | -872.979        | 1754.05          | 1753.96         | 1770.25        
TRNEF+I         | 3               | -876.195        | 1758.45          | 1758.39         | 1770.61        
TRNEF+G         | 3               | -876.197        | 1758.45          | 1758.39         | 1770.61        
TIMEF+I         | 4               | -875.298        | 1758.69          | 1758.6          | 1774.89        
TIMEF+G         | 4               | -875.304        | 1758.7           | 1758.61         | 1774.9         
TRNEF+I+G       | 4               | -876.207        | 1760.51          | 1760.41         | 1776.71        
TIMEF+I+G       | 5               | -875.316        | 1760.77          | 1760.63         | 1781.0         
K80+G           | 2               | -879.332        | 1762.69          | 1762.66         | 1770.81        
K80+I           | 2               | -879.348        | 1762.72          | 1762.7          | 1770.84        
TRNEF           | 2               | -879.353        | 1762.73          | 1762.71         | 1770.85        
K81+G           | 3               | -878.434        | 1762.92          | 1762.87         | 1775.09        
K81+I           | 3               | -878.456        | 1762.97          | 1762.91         | 1775.13        
TIMEF           | 3               | -878.508        | 1763.07          | 1763.02         | 1775.24        
K80+I+G         | 3               | -879.328        | 1764.71          | 1764.66         | 1776.87        
K81+I+G         | 4               | -878.432        | 1764.96          | 1764.86         | 1781.16        
K80             | 1               | -882.458        | 1766.92          | 1766.92         | 1770.99        
K81             | 2               | -881.613        | 1767.25          | 1767.23         | 1775.37        
JC+G            | 1               | -883.166        | 1768.34          | 1768.33         | 1772.41        
JC+I            | 1               | -883.183        | 1768.38          | 1768.37         | 1772.44        
JC+I+G          | 2               | -883.172        | 1770.37          | 1770.34         | 1778.49        
JC              | 0               | -886.025        | 1772.05          | 1772.05         | 1772.05        
