Model selection results for subset: c2d7458c24b370fbed98a90d4bac9404
Subset alignment stored here: ./analysis/phylofiles/c2d7458c24b370fbed98a90d4bac9404.phy
This subset contains the following data_blocks: Gene
Number of columns in subset: 2460
Models are organised according to their AICc scores

Model           | Parameters      | lnL             | AICc             | AIC             | BIC            
GTR+I+G         | 10              | -9732.47        | 19485.0          | 19484.9         | 19543.0        
GTR+G           | 9               | -9737.18        | 19492.4          | 19492.4         | 19544.6        
TRN+I+G         | 7               | -9741.51        | 19497.1          | 19497.0         | 19537.7        
TIM+I+G         | 8               | -9741.31        | 19498.7          | 19498.6         | 19545.1        
TRN+G           | 6               | -9747.41        | 19506.9          | 19506.8         | 19541.7        
TIM+G           | 7               | -9747.23        | 19508.5          | 19508.5         | 19549.1        
GTR+I           | 9               | -9745.78        | 19509.6          | 19509.6         | 19561.8        
TRN+I           | 6               | -9752.73        | 19517.5          | 19517.5         | 19552.3        
TIM+I           | 7               | -9752.42        | 19518.9          | 19518.8         | 19559.5        
TVM+I+G         | 9               | -9778.84        | 19575.8          | 19575.7         | 19628.0        
TVM+G           | 8               | -9782.67        | 19581.4          | 19581.3         | 19627.8        
HKY+I+G         | 6               | -9787.14        | 19586.3          | 19586.3         | 19621.1        
K81UF+I+G       | 7               | -9787.02        | 19588.1          | 19588.0         | 19628.7        
HKY+G           | 5               | -9791.78        | 19593.6          | 19593.6         | 19622.6        
K81UF+G         | 6               | -9791.67        | 19595.4          | 19595.3         | 19630.2        
TVM+I           | 8               | -9790.65        | 19597.4          | 19597.3         | 19643.8        
HKY+I           | 5               | -9797.93        | 19605.9          | 19605.9         | 19634.9        
K81UF+I         | 6               | -9797.75        | 19607.5          | 19607.5         | 19642.3        
SYM+I+G         | 7               | -9801.85        | 19617.7          | 19617.7         | 19658.4        
SYM+G           | 6               | -9806.01        | 19624.1          | 19624.0         | 19658.9        
TRNEF+I+G       | 4               | -9814.92        | 19637.8          | 19637.8         | 19661.1        
TIMEF+I+G       | 5               | -9814.08        | 19638.2          | 19638.2         | 19667.2        
SYM+I           | 6               | -9813.1         | 19638.2          | 19638.2         | 19673.0        
TRNEF+G         | 3               | -9819.83        | 19645.7          | 19645.7         | 19663.1        
TIMEF+G         | 4               | -9819.16        | 19646.3          | 19646.3         | 19669.6        
TIMEF+I         | 4               | -9824.41        | 19656.8          | 19656.8         | 19680.1        
TRNEF+I         | 3               | -9825.42        | 19656.8          | 19656.8         | 19674.3        
TVMEF+I+G       | 6               | -9823.97        | 19660.0          | 19659.9         | 19694.8        
TVMEF+G         | 5               | -9826.0         | 19662.0          | 19662.0         | 19691.0        
K80+I+G         | 3               | -9837.62        | 19681.2          | 19681.2         | 19698.7        
K81+I+G         | 4               | -9836.83        | 19681.7          | 19681.7         | 19704.9        
TVMEF+I         | 5               | -9837.09        | 19684.2          | 19684.2         | 19713.2        
K80+G           | 2               | -9840.65        | 19685.3          | 19685.3         | 19696.9        
K81+G           | 3               | -9840.04        | 19686.1          | 19686.1         | 19703.5        
K81+I           | 3               | -9848.06        | 19702.1          | 19702.1         | 19719.5        
K80+I           | 2               | -9849.08        | 19702.2          | 19702.2         | 19713.8        
GTR             | 8               | -10064.8        | 20145.6          | 20145.6         | 20192.0        
TRN             | 5               | -10074.7        | 20159.4          | 20159.3         | 20188.4        
TIM             | 6               | -10074.5        | 20161.1          | 20161.0         | 20195.9        
SYM             | 5               | -10135.6        | 20281.2          | 20281.2         | 20310.2        
TRNEF           | 2               | -10148.2        | 20300.5          | 20300.5         | 20312.1        
TIMEF           | 3               | -10147.5        | 20301.0          | 20301.0         | 20318.4        
TVM             | 7               | -10154.0        | 20322.1          | 20322.0         | 20362.7        
HKY             | 4               | -10164.2        | 20336.3          | 20336.3         | 20359.5        
K81UF           | 5               | -10164.0        | 20338.1          | 20338.0         | 20367.1        
TVMEF           | 4               | -10182.7        | 20373.5          | 20373.4         | 20396.7        
K80             | 1               | -10195.2        | 20392.4          | 20392.4         | 20398.2        
K81             | 2               | -10194.4        | 20392.9          | 20392.9         | 20404.5        
F81+I+G         | 5               | -10270.0        | 20550.0          | 20550.0         | 20579.0        
F81+G           | 4               | -10274.1        | 20556.1          | 20556.1         | 20579.4        
F81+I           | 4               | -10277.0        | 20562.0          | 20561.9         | 20585.2        
JC+I+G          | 2               | -10295.3        | 20594.7          | 20594.7         | 20606.3        
JC+G            | 1               | -10297.9        | 20597.8          | 20597.8         | 20603.6        
JC+I            | 1               | -10304.5        | 20611.0          | 20611.0         | 20616.8        
F81             | 3               | -10561.0        | 21128.1          | 21128.0         | 21145.5        
JC              | 0               | -10596.4        | 21192.7          | 21192.7         | 21192.7        
