name,sites,lnL,parameters,subsets,aic,aicc,bic
two_parts,2460,-9643.22,31,2,19348.44,19349.26,19528.49
codons,2460,-9495.53,40,3,19071.06,19072.41,19303.37
together,2460,-9744.13,24,1,19536.25,19536.75,19675.64
separate,2460,-9016.70,54,6,18141.40,18143.87,18455.03
